Gat201 RNA Seq deseq-analys2s 2021-06-18EH
…
tresults_0h %>%  
dplyr::mutate(minus_log10_pvalue = -log10(p.value)) %>%
readr::write_tsv("~/Documents/GitHub/CryptoGat201RNASeq_draft/results_deseq_2/WT_Gat201_DEseq2_genes0h.txt")

de_WTup_0h <- dplyr::filter(tresults_0h, estimate > 0, p.adjusted < 0.05) %>%
              dplyr::arrange(desc(estimate))
de_WTup_0h

## # A tibble: 125 x 7
##    gene       baseMean estimate stderror statistic  p.value   p.adjusted
##    <chr>         <dbl>    <dbl>    <dbl>     <dbl>    <dbl>        <dbl>
##  1 CNAG_01560     32.0     3.80    1.16       3.29 1.01e- 3 0.0248      
##  2 CNAG_02553     26.8     2.19    0.377      5.81 6.31e- 9 0.00000167  
##  3 CNAG_01571    342.      2.05    0.590      3.47 5.23e- 4 0.0157      
##  4 CNAG_01551    257.      1.82    0.313      5.82 5.86e- 9 0.00000166  
##  5 CNAG_02225    547.      1.71    0.267      6.41 1.46e-10 0.0000000732
##  6 CNAG_01275    111.      1.68    0.288      5.82 5.86e- 9 0.00000166  
##  7 CNAG_06484    152.      1.58    0.326      4.84 1.32e- 6 0.000168    
##  8 CNAG_03754    127.      1.50    0.277      5.43 5.66e- 8 0.0000119   
##  9 CNAG_07913     25.5     1.42    0.355      3.99 6.59e- 5 0.00340     
## 10 CNAG_06568    628.      1.41    0.217      6.51 7.71e-11 0.0000000456
## # ... with 115 more rows

readr::write_tsv(de_WTup_0h, "~/Documents/GitHub/CryptoGat201RNASeq_draft/results_deseq_2/WTup_DEseq2_padj0p05_0h.txt")
readr::write_lines(de_WTup_0h$gene, "~/Documents/GitHub/CryptoGat201RNASeq_draft/results_deseq_2/WTup_DEseq2_padj0p05_0h_genesonly.txt")

de_WTdown_0h <- dplyr::filter(tresults_0h, estimate < 0, p.adjusted < 0.05) %>%
                dplyr::arrange(estimate)
de_WTdown_0h

## # A tibble: 224 x 7
##    gene       baseMean estimate stderror statistic  p.value p.adjusted
##    <chr>         <dbl>    <dbl>    <dbl>     <dbl>    <dbl>      <dbl>
##  1 CNAG_00979    242.     -2.52    0.294     -8.58 9.50e-18   6.18e-14
##  2 CNAG_06802     20.7    -2.21    0.438     -5.04 4.56e- 7   6.74e- 5
##  3 CNAG_00472     12.6    -1.92    0.510     -3.76 1.73e- 4   7.15e- 3
##  4 CNAG_05962     42.7    -1.90    0.353     -5.39 7.15e- 8   1.45e- 5
##  5 CNAG_06662     13.2    -1.80    0.493     -3.66 2.55e- 4   9.32e- 3
##  6 CNAG_05144     48.3    -1.77    0.349     -5.07 4.04e- 7   6.26e- 5
##  7 CNAG_04681    202.     -1.70    0.234     -7.27 3.58e-13   5.82e-10
##  8 CNAG_07791   1039.     -1.64    0.490     -3.34 8.25e- 4   2.17e- 2
##  9 CNAG_02194     36.0    -1.61    0.339     -4.74 2.15e- 6   2.57e- 4
## 10 CNAG_01333     14.9    -1.60    0.408     -3.92 9.02e- 5   4.22e- 3
## # ... with 214 more rows
…
tresults_30m %>%  
dplyr::mutate(minus_log10_pvalue = -log10(p.value)) %>%
readr::write_tsv("~/Documents/GitHub/CryptoGat201RNASeq_draft/results_deseq_2/WT_Gat201_DEseq2_genes30m.txt")

de_WTup_30m <- dplyr::filter(tresults_30m, estimate > 0, p.adjusted < 0.05) %>%
              dplyr::arrange(desc(estimate))
de_WTup_30m

## # A tibble: 683 x 7
##    gene       baseMean estimate stderror statistic  p.value p.adjusted
##    <chr>         <dbl>    <dbl>    <dbl>     <dbl>    <dbl>      <dbl>
##  1 CNAG_01560     63.6     3.02    0.588      5.14 2.76e- 7   1.58e- 5
##  2 CNAG_03609     80.6     2.77    0.881      3.15 1.65e- 3   1.35e- 2
##  3 CNAG_04103    102.      2.69    0.307      8.76 1.88e-18   1.16e-15
##  4 CNAG_02729     45.7     1.94    0.709      2.73 6.35e- 3   3.71e- 2
##  5 CNAG_01524    178.      1.80    0.360      5.00 5.61e- 7   2.77e- 5
##  6 CNAG_06659     64.5     1.77    0.213      8.30 1.07e-16   4.85e-14
##  7 CNAG_01571    247.      1.76    0.482      3.65 2.63e- 4   3.39e- 3
##  8 CNAG_00321     75.3     1.71    0.633      2.70 7.00e- 3   4.00e- 2
##  9 CNAG_00588    268.      1.68    0.246      6.83 8.43e-12   1.30e- 9
## 10 CNAG_04104    141.      1.65    0.254      6.52 7.00e-11   8.95e- 9
## # ... with 673 more rows

readr::write_tsv(de_WTup_30m, "~/Documents/GitHub/CryptoGat201RNASeq_draft/results_deseq_2/WTup_DEseq2_padj0p05_30m.txt")
readr::write_lines(de_WTup_30m$gene, "~/Documents/GitHub/CryptoGat201RNASeq_draft/results_deseq_2/WTup_DEseq2_padj0p05_30m_genesonly.txt")

de_WTdown_30m <- dplyr::filter(tresults_30m, estimate < 0, p.adjusted < 0.05) %>%
                dplyr::arrange(estimate)
de_WTdown_30m

## # A tibble: 594 x 7
##    gene       baseMean estimate stderror statistic  p.value p.adjusted
##    <chr>         <dbl>    <dbl>    <dbl>     <dbl>    <dbl>      <dbl>
##  1 CNAG_01551   928.      -4.09    0.252    -16.2  5.13e-59   3.48e-55
##  2 CNAG_00302    25.9     -2.80    0.262    -10.7  1.19e-26   2.70e-23
##  3 CNAG_06802   215.      -2.69    0.405     -6.64 3.04e-11   4.12e- 9
##  4 CNAG_03658     5.18    -2.18    0.698     -3.12 1.82e- 3   1.45e- 2
##  5 CNAG_03172    50.6     -2.14    0.476     -4.50 6.83e- 6   1.98e- 4
##  6 CNAG_01252     6.00    -2.00    0.455     -4.38 1.16e- 5   2.95e- 4
##  7 CNAG_03461   144.      -1.80    0.175    -10.3  1.17e-24   1.99e-21
##  8 CNAG_05513     5.48    -1.77    0.584     -3.04 2.37e- 3   1.77e- 2
##  9 CNAG_01909    11.7     -1.77    0.532     -3.33 8.82e- 4   8.31e- 3
## 10 CNAG_07896    18.2     -1.74    0.253     -6.87 6.64e-12   1.10e- 9
## # ... with 584 more rows
…
tresults_2h %>%  
dplyr::mutate(minus_log10_pvalue = -log10(p.value)) %>%
readr::write_tsv("~/Documents/GitHub/CryptoGat201RNASeq_draft/results_deseq_2/WT_Gat201_DEseq2_genes2h.txt")

de_WTup_2h <- dplyr::filter(tresults_2h, estimate > 0, p.adjusted < 0.05) %>%
              dplyr::arrange(desc(estimate))
de_WTup_2h

## # A tibble: 580 x 7
##    gene       baseMean estimate stderror statistic  p.value p.adjusted
##    <chr>         <dbl>    <dbl>    <dbl>     <dbl>    <dbl>      <dbl>
##  1 CNAG_07912  1081.       2.60    0.171     15.2  2.09e-52   1.42e-49
##  2 CNAG_07984    96.9      2.50    0.245     10.2  2.29e-24   3.61e-22
##  3 CNAG_01936   353.       2.34    0.218     10.7  7.23e-27   1.40e-24
##  4 CNAG_00588  3533.       2.27    0.209     10.9  1.42e-27   3.10e-25
##  5 CNAG_01965    40.0      2.07    0.333      6.22 5.08e-10   2.10e- 8
##  6 CNAG_02489    67.8      1.93    0.280      6.88 5.88e-12   3.19e-10
##  7 CNAG_03077     2.68     1.92    0.705      2.73 6.40e- 3   3.87e- 2
##  8 CNAG_01560    34.5      1.90    0.571      3.33 8.68e- 4   8.21e- 3
##  9 CNAG_06347  5905.       1.88    0.431      4.37 1.24e- 5   2.18e- 4
## 10 CNAG_03087    13.7      1.81    0.328      5.51 3.55e- 8   1.05e- 6
## # ... with 570 more rows

readr::write_tsv(de_WTup_2h, "~/Documents/GitHub/CryptoGat201RNASeq_draft/results_deseq_2/WTup_DEseq2_padj0p05_2h.txt")
readr::write_lines(de_WTup_2h$gene, "~/Documents/GitHub/CryptoGat201RNASeq_draft/results_deseq_2/WTup_DEseq2_padj0p05_2h_genesonly.txt")

de_WTdown_2h <- dplyr::filter(tresults_2h, estimate < 0, p.adjusted < 0.05) %>%
                dplyr::arrange(estimate)
de_WTdown_2h

## # A tibble: 626 x 7
##    gene       baseMean estimate stderror statistic   p.value p.adjusted
##    <chr>         <dbl>    <dbl>    <dbl>     <dbl>     <dbl>      <dbl>
##  1 CNAG_01980     34.8    -5.87    0.524    -11.2  3.95e- 29  9.92e- 27
##  2 CNAG_01551   2342.     -3.86    0.331    -11.6  2.48e- 31  6.46e- 29
##  3 CNAG_06389     98.2    -3.80    0.248    -15.3  3.76e- 53  2.83e- 50
##  4 CNAG_06242    898.     -3.57    0.180    -19.8  2.82e- 87  4.78e- 84
##  5 CNAG_04874    599.     -3.14    0.132    -23.8  5.33e-125  3.61e-121
##  6 CNAG_05916    329.     -2.94    0.133    -22.1  4.58e-108  1.55e-104
##  7 CNAG_00456   1066.     -2.93    0.180    -16.2  3.00e- 59  2.90e- 56
##  8 CNAG_06785    547.     -2.86    0.180    -15.9  4.88e- 57  4.14e- 54
##  9 CNAG_06917   1512.     -2.78    0.202    -13.8  4.33e- 43  2.09e- 40
## 10 CNAG_06802     22.0    -2.62    0.440     -5.94 2.86e-  9  1.06e-  7
## # ... with 616 more rows
…
minus_log10_pvalue need to calcultae this for volcanoser. This takes the work done in the script so far and puts it in a sensible format and exports it to a file: WT_Gat201_DEseq2_genes4h.txt (count analysis and sample sheet to get DE data)

tresults_4h %>%  
dplyr::mutate(minus_log10_pvalue = -log10(p.value)) %>%
readr::write_tsv("~/Documents/GitHub/CryptoGat201RNASeq_draft/results_deseq_2/WT_Gat201_DEseq2_genes4h.txt")

Filter results 2x different, 5% FDR upregulated

Select rows with estimated log2fold change >0 and -pvalue <0.05 Arrange in descending row estimate, most DE genes at top New table, similar info to V, just ordered differently, entire table with all stats Took list of genes (de_WTup_4h$gene)write to new file. Can use this file GO analysis

de_WTup_4h <- dplyr::filter(tresults_4h, estimate > 0, p.adjusted < 0.05) %>%
              dplyr::arrange(desc(estimate))
de_WTup_4h

## # A tibble: 1,489 x 7
##    gene       baseMean estimate stderror statistic  p.value p.adjusted
##    <chr>         <dbl>    <dbl>    <dbl>     <dbl>    <dbl>      <dbl>
##  1 CNAG_07913     2.65     3.79    0.863      4.39 1.12e- 5   8.02e- 5
##  2 CNAG_02984    33.8      3.41    0.290     11.8  5.95e-32   7.32e-30
##  3 CNAG_07912   324.       3.36    0.215     15.6  5.38e-55   1.58e-52
##  4 CNAG_01500    13.9      3.29    0.495      6.65 2.96e-11   6.65e-10
##  5 CNAG_05662  3785.       2.59    0.239     10.9  1.55e-27   1.40e-25
##  6 CNAG_01562  2261.       2.54    0.502      5.06 4.26e- 7   4.52e- 6
##  7 CNAG_06347 49030.       2.42    0.191     12.7  4.38e-37   7.41e-35
##  8 CNAG_05833    33.0      2.41    0.263      9.15 5.67e-20   2.93e-18
##  9 CNAG_00765   274.       2.34    0.167     14.0  2.29e-44   5.52e-42
## 10 CNAG_01272  3424.       2.31    0.197     11.7  9.49e-32   1.11e-29
## # ... with 1,479 more rows

readr::write_tsv(de_WTup_4h, "~/Documents/GitHub/CryptoGat201RNASeq_draft/results_deseq_2/WTup_DEseq2_padj0p05.txt")
readr::write_lines(de_WTup_4h$gene, "~/Documents/GitHub/CryptoGat201RNASeq_draft/results_deseq_2/WTup_DEseq2_padj0p05_genesonly.txt")

WT (GAT201 = yes) vs Gat201 deletion (GAT201 = no) at DOWN 4h only

values negative since down regulated

de_WTdown_4h <- dplyr::filter(tresults_4h, estimate < 0, p.adjusted < 0.05) %>%
                dplyr::arrange(estimate)
de_WTdown_4h

## # A tibble: 1,409 x 7
##    gene       baseMean estimate stderror statistic   p.value p.adjusted
##    <chr>         <dbl>    <dbl>    <dbl>     <dbl>     <dbl>      <dbl>
##  1 CNAG_01980     147.    -7.86    0.465    -16.9  4.23e- 64  1.79e- 61
##  2 CNAG_06389     563.    -6.67    0.254    -26.3  4.72e-152  1.59e-148
##  3 CNAG_03894     419.    -6.11    0.360    -17.0  1.50e- 64  6.76e- 62
##  4 CNAG_04874    1391.    -4.17    0.203    -20.5  1.58e- 93  2.67e- 90
##  5 CNAG_06785    1150.    -4.01    0.123    -32.5  4.51e-231  3.05e-227
##  6 CNAG_00456    2472.    -3.94    0.193    -20.4  7.11e- 93  9.61e- 90
##  7 CNAG_06242     584.    -3.81    0.233    -16.3  5.35e- 60  1.81e- 57
##  8 CNAG_05312     196.    -3.80    0.213    -17.9  2.81e- 71  1.59e- 68
##  9 CNAG_00735     114.    -3.78    0.405     -9.33 1.11e- 20  6.15e- 19
## 10 CNAG_01551    2314.    -3.73    0.318    -11.7  7.96e- 32  9.44e- 30
## # ... with 1,399 more rows
…
tresults_0_30 %>%  
dplyr::mutate(minus_log10_pvalue = -log10(p.value)) %>%
readr::write_tsv("~/Documents/GitHub/CryptoGat201RNASeq_draft/results_deseq_2/0v30Gat201mut.txt")

de_Gat201up_0_30 <- dplyr::filter(tresults_0_30, estimate > 0, p.adjusted < 0.05) %>%
              dplyr::arrange(desc(estimate))
de_Gat201up_0_30

## # A tibble: 2,774 x 7
##    gene       baseMean estimate stderror statistic   p.value p.adjusted
##    <chr>         <dbl>    <dbl>    <dbl>     <dbl>     <dbl>      <dbl>
##  1 CNAG_05144    5900.    0.234  0.00591      39.6 0          0        
##  2 CNAG_04298    1401.    0.226  0.00649      34.8 1.53e-265  1.24e-263
##  3 CNAG_05425    4702.    0.224  0.00533      42.0 0          0        
##  4 CNAG_01810     324.    0.224  0.0115       19.5 1.31e- 84  1.06e- 83
##  5 CNAG_00934     173.    0.223  0.0153       14.6 5.16e- 48  2.26e- 47
##  6 CNAG_00979   22489.    0.216  0.00762      28.3 2.34e-176  6.29e-175
##  7 CNAG_04694    1695.    0.214  0.00612      34.9 1.37e-267  1.15e-265
##  8 CNAG_01877    2403.    0.214  0.00532      40.2 0          0        
##  9 CNAG_04347    2259.    0.212  0.00515      41.2 0          0        
## 10 CNAG_06517    1012.    0.212  0.00720      29.4 8.56e-190  2.68e-188
## # ... with 2,764 more rows

readr::write_tsv(de_Gat201up_0_30, "~/Documents/GitHub/CryptoGat201RNASeq_draft/results_deseq_2/0v30Gat201mutup_padj0p05.txt")
readr::write_lines(de_Gat201up_0_30$gene, "~/Documents/GitHub/CryptoGat201RNASeq_draft/results_deseq_2/0v30Gat201mutup_padj0p05_genesonly.txt")

de_Gat201down_0_30 <- dplyr::filter(tresults_0_30, estimate < 0, p.adjusted < 0.05) %>%
                dplyr::arrange(estimate)
de_Gat201down_0_30

## # A tibble: 2,800 x 7
##    gene       baseMean estimate stderror statistic   p.value p.adjusted
##    <chr>         <dbl>    <dbl>    <dbl>     <dbl>     <dbl>      <dbl>
##  1 CNAG_06169   1343.    -0.216  0.00567     -38.1 0          0        
##  2 CNAG_00091   1714.    -0.212  0.00395     -53.5 0          0        
##  3 CNAG_06453   4252.    -0.209  0.00509     -41.0 0          0        
##  4 CNAG_06074    969.    -0.208  0.00553     -37.6 0          0        
##  5 CNAG_01102   1785.    -0.208  0.00395     -52.6 0          0        
##  6 CNAG_01534   2037.    -0.203  0.00613     -33.2 2.59e-241  1.50e-239
##  7 CNAG_06064     40.7   -0.201  0.0156      -12.9 4.33e- 38  1.56e- 37
##  8 CNAG_00834    185.    -0.198  0.00686     -28.9 1.61e-183  4.74e-182
##  9 CNAG_04903    919.    -0.197  0.00539     -36.6 1.30e-292  1.44e-290
## 10 CNAG_01052    219.    -0.197  0.00664     -29.6 5.24e-193  1.70e-191
## # ... with 2,790 more rows
…
tresults_0_2 %>%  
dplyr::mutate(minus_log10_pvalue = -log10(p.value)) %>%
readr::write_tsv("~/Documents/GitHub/CryptoGat201RNASeq_draft/results_deseq_2/0v2Gat201mut.txt")

de_Gat201up_0_2 <- dplyr::filter(tresults_0_2, estimate > 0, p.adjusted < 0.05) %>%
              dplyr::arrange(desc(estimate))
de_Gat201up_0_2

## # A tibble: 2,658 x 7
##    gene       baseMean estimate stderror statistic   p.value p.adjusted
##    <chr>         <dbl>    <dbl>    <dbl>     <dbl>     <dbl>      <dbl>
##  1 CNAG_06388  21353.    0.0588  0.00242     24.3  5.43e-130  2.36e-128
##  2 CNAG_06298  32766.    0.0548  0.00208     26.4  8.68e-154  6.00e-152
##  3 CNAG_06207  48125.    0.0510  0.00204     25.0  6.06e-138  3.11e-136
##  4 CNAG_00162  12037.    0.0507  0.00195     26.0  1.80e-149  1.15e-147
##  5 CNAG_06297  11421.    0.0495  0.00215     23.0  4.63e-117  1.55e-115
##  6 CNAG_02235    141.    0.0490  0.00366     13.4  6.63e- 41  4.40e- 40
##  7 CNAG_00895   2335.    0.0489  0.00489      9.99 1.64e- 23  6.24e- 23
##  8 CNAG_06242    803.    0.0469  0.00173     27.2  2.28e-162  1.82e-160
##  9 CNAG_04756    394.    0.0463  0.00246     18.8  9.36e- 79  1.52e- 77
## 10 CNAG_05813     42.9   0.0453  0.00556      8.15 3.74e- 16  1.09e- 15
## # ... with 2,648 more rows

readr::write_tsv(de_Gat201up_0_2, "~/Documents/GitHub/CryptoGat201RNASeq_draft/results_deseq_2/0v2Gat201mutup_padj0p05.txt")
readr::write_lines(de_Gat201up_0_2$gene, "~/Documents/GitHub/CryptoGat201RNASeq_draft/results_deseq_2/0v2Gat201mutup_padj0p05_genesonly.txt")

de_Gat201down_0_2 <- dplyr::filter(tresults_0_2, estimate < 0, p.adjusted < 0.05) %>%
                dplyr::arrange(estimate)
de_Gat201down_0_2

## # A tibble: 2,698 x 7
##    gene       baseMean estimate stderror statistic   p.value p.adjusted
##    <chr>         <dbl>    <dbl>    <dbl>     <dbl>     <dbl>      <dbl>
##  1 CNAG_04459   632.    -0.0606  0.00162    -37.5  0          0        
##  2 CNAG_01827    19.1   -0.0588  0.00614     -9.58 9.70e- 22  3.47e- 21
##  3 CNAG_07308   590.    -0.0587  0.00249    -23.6  8.28e-123  3.17e-121
##  4 CNAG_03782  1434.    -0.0563  0.00204    -27.6  1.17e-167  1.00e-165
##  5 CNAG_01534  2606.    -0.0556  0.00137    -40.6  0          0        
##  6 CNAG_01919  5560.    -0.0550  0.00132    -41.8  0          0        
##  7 CNAG_07790     8.36  -0.0549  0.00810     -6.78 1.23e- 11  2.88e- 11
##  8 CNAG_03666  1251.    -0.0539  0.00153    -35.2  3.92e-272  1.90e-269
##  9 CNAG_02899  1572.    -0.0534  0.00215    -24.8  5.63e-136  2.75e-134
## 10 CNAG_02118  2263.    -0.0530  0.00146    -36.3  6.22e-288  3.83e-285
## # ... with 2,688 more rows
…
tresults_0_4 %>%  
dplyr::mutate(minus_log10_pvalue = -log10(p.value)) %>%
readr::write_tsv("~/Documents/GitHub/CryptoGat201RNASeq_draft/results_deseq_2/0v4Gat201mut.txt")

de_Gat201up_0_4 <- dplyr::filter(tresults_0_4, estimate > 0, p.adjusted < 0.05) %>%
                   dplyr::arrange(desc(estimate))
de_Gat201up_0_4

## # A tibble: 2,636 x 7
##    gene       baseMean estimate stderror statistic   p.value p.adjusted
##    <chr>         <dbl>    <dbl>    <dbl>     <dbl>     <dbl>      <dbl>
##  1 CNAG_06346   1830.    0.0376 0.00163      23.0  4.78e-117  2.38e-115
##  2 CNAG_06917  10561.    0.0342 0.000670     51.1  0          0        
##  3 CNAG_00165   2193.    0.0318 0.00129      24.7  1.23e-134  9.47e-133
##  4 CNAG_06388  13965.    0.0272 0.00105      25.9  2.34e-147  2.48e-145
##  5 CNAG_06389    532.    0.0269 0.00202      13.3  1.32e- 40  1.04e- 39
##  6 CNAG_01980    140.    0.0269 0.00243      11.1  1.51e- 28  7.84e- 28
##  7 CNAG_04756    569.    0.0257 0.00137      18.8  1.03e- 78  2.40e- 77
##  8 CNAG_05813     63.6   0.0253 0.00281       9.03 1.75e- 19  6.27e- 19
##  9 CNAG_06298  21542.    0.0252 0.000978     25.8  7.30e-147  7.49e-145
## 10 CNAG_04215   1470.    0.0250 0.000896     27.9  7.10e-171  1.37e-168
## # ... with 2,626 more rows

readr::write_tsv(de_Gat201up_0_4, "~/Documents/GitHub/CryptoGat201RNASeq_draft/results_deseq_2/0v4Gat201mutup_padj0p05.txt")
readr::write_lines(de_Gat201up_0_4$gene, "~/Documents/GitHub/CryptoGat201RNASeq_draft/results_deseq_2/0v4Gat201mutup_padj0p05_genesonly.txt")

de_Gat201down_0_4 <- dplyr::filter(tresults_0_4, estimate < 0, p.adjusted < 0.05) %>%
                     dplyr::arrange(estimate)
de_Gat201down_0_4

## # A tibble: 2,713 x 7
##    gene       baseMean estimate stderror statistic   p.value p.adjusted
##    <chr>         <dbl>    <dbl>    <dbl>     <dbl>     <dbl>      <dbl>
##  1 CNAG_04459   597.    -0.0312 0.000923    -33.8  9.80e-250  8.29e-247
##  2 CNAG_03782  1348.    -0.0304 0.000860    -35.4  2.80e-274  6.31e-271
##  3 CNAG_06172    43.1   -0.0292 0.00221     -13.2  6.94e- 40  5.34e- 39
##  4 CNAG_03666  1177.    -0.0288 0.00180     -16.0  1.87e- 57  2.42e- 56
##  5 CNAG_00490   934.    -0.0286 0.00173     -16.6  1.60e- 61  2.31e- 60
##  6 CNAG_07790     7.86  -0.0284 0.00690      -4.12 3.82e-  5  6.31e-  5
##  7 CNAG_01534  2467.    -0.0276 0.000911    -30.3  2.70e-202  1.02e-199
##  8 CNAG_01827    18.2   -0.0275 0.00289      -9.53 1.60e- 21  6.23e- 21
##  9 CNAG_02045   110.    -0.0272 0.00132     -20.7  4.64e- 95  1.45e- 93
## 10 CNAG_02899  1486.    -0.0268 0.00111     -24.2  5.69e-129  3.60e-127
## # ... with 2,703 more rows
…
