Gat201 RNA Seq count analysis 2021-04-24EH
…
counts <- read_tsv("~/Documents/GitHub/CryptoGat201RNASeq_draft/quantseqfwd_EH_050221/counts.txt",
                   comment = "#")

## 
## -- Column specification --------------------------------------------------------
## cols(
##   .default = col_double(),
##   Geneid = col_character(),
##   Strand = col_character()
## )
## i Use `spec()` for the full column specifications.

counts

## # A tibble: 6,795 x 62
##    Geneid     Chr Start   End Strand Length `15_S25_R1_001_al~ `38_S13_R1_001_a~
##    <chr>    <dbl> <dbl> <dbl> <chr>   <dbl>              <dbl>             <dbl>
##  1 CNAG_00~     1 12730 13756 +        1027                184               452
##  2 CNAG_00~     1 14025 16421 -        2397                137               153
##  3 CNAG_00~     1 16427 19850 -        3424                134               210
##  4 CNAG_00~     1 20750 22911 -        2162                206               799
##  5 CNAG_00~     1 24710 26159 -        1450                490              1070
##  6 CNAG_00~     1 26275 28568 +        2294                 67               423
##  7 CNAG_00~     1 28555 32905 -        4351                166               260
##  8 CNAG_00~     1 33086 34879 +        1794                259               121
##  9 CNAG_00~     1 35746 39624 -        3879                197               403
## 10 CNAG_00~     1 40231 42267 +        2037                105                80
## # ... with 6,785 more rows, and 54 more variables: 26_S5_R1_001_aln.bam <dbl>,
## #   55_S38_R1_001_aln.bam <dbl>, 25_S20_R1_001_aln.bam <dbl>,
## #   43_S7_R1_001_aln.bam <dbl>, 44_S49_R1_001_aln.bam <dbl>,
## #   18_S19_R1_001_aln.bam <dbl>, 41_S36_R1_001_aln.bam <dbl>,
## #   50_S50_R1_001_aln.bam <dbl>, 9_S46_R1_001_aln.bam <dbl>,
## #   42_S41_R1_001_aln.bam <dbl>, 56_S43_R1_001_aln.bam <dbl>,
## #   16_S42_R1_001_aln.bam <dbl>, 28_S54_R1_001_aln.bam <dbl>,
## #   34_S35_R1_001_aln.bam <dbl>, 35_S56_R1_001_aln.bam <dbl>,
## #   53_S24_R1_001_aln.bam <dbl>, 21_S12_R1_001_aln.bam <dbl>,
…
samplesheet

## # A tibble: 56 x 8
##    SampleID BioRep Media  Timepoint Group    Strain Condition  Time
##    <chr>     <dbl> <chr>      <dbl> <fct>    <chr>  <chr>     <dbl>
##  1 1             1 YPD            0 A_Y_0    A      Y             0
##  2 2             1 RPMI          30 A_R_30   A      R            30
##  3 3             1 RPMI         120 A_R_120  A      R           120
##  4 4             1 RPMI         240 A_R_240  A      R           240
##  5 5b            2 YPD            0 A_Y_0    A      Y             0
##  6 6             2 RPMI          30 A_R_30   A      R            30
##  7 7             2 RPMI         120 A_R_120  A      R           120
##  8 8             2 RPMI         240 A_R_240  A      R           240
##  9 9             1 RPMI+S        30 A_RS_30  A      RS           30
## 10 10            1 RPMI+S       120 A_RS_120 A      RS          120
## # ... with 46 more rows
…
## Joining, by = "SampleID"

counts_long

## # A tibble: 380,520 x 13
##    Geneid  SampleID SampleNo Count   TPM FoldChange BioRep Media Timepoint Group
##    <chr>   <chr>    <chr>    <dbl> <dbl>      <dbl>  <dbl> <chr>     <dbl> <fct>
##  1 CNAG_0~ 15       S25        184 102.       0.611      1 YPD           0 a_Y_0
##  2 CNAG_0~ 38       S13        452 106.       0.635      1 RPMI~       120 B_RS~
##  3 CNAG_0~ 26       S5        1652 395.       2.36       2 RPMI~        30 a_RS~
##  4 CNAG_0~ 55       S38        403 102.       0.611      2 RPMI~       120 M_RS~
##  5 CNAG_0~ 25       S20        172  47.8      0.285      1 RPMI~       240 a_RS~
##  6 CNAG_0~ 43       S7         738 152.       0.910      1 YPD           0 M_Y_0
##  7 CNAG_0~ 44       S49       2011 413.       2.47       1 RPMI         30 M_R_~
##  8 CNAG_0~ 18       S19        207  62.2      0.372      1 RPMI        240 a_R_~
##  9 CNAG_0~ 41       S36       1099  95.4      0.570      2 RPMI~       120 B_RS~
## 10 CNAG_0~ 50       S50        761  88.7      0.530      2 RPMI        240 M_R_~
## # ... with 380,510 more rows, and 3 more variables: Strain <chr>,
## #   Condition <chr>, Time <dbl>
…
Plot scatter plots between all pairs of samples (careful, this code runs VERY slowly)

tpms_wide[,-1] %>% add(1) %>% log10() %>% ggpairs()

tpms_wide[,-1] %>% add(1) %>% log10() %>% ggpairs()

Calculate a summary table of mean, min, max TPM by gene

genesummary <- 
    counts_long %>%
    group_by(Geneid) %>%
    summarise(TPM.mean = mean(TPM), TPM.min = min(TPM), TPM.max = max(TPM))
genesummary

## # A tibble: 6,795 x 4
##    Geneid     TPM.mean TPM.min TPM.max
##    <chr>         <dbl>   <dbl>   <dbl>
##  1 CNAG_00002    167.    47.8    427. 
##  2 CNAG_00003     29.9   12.6     85.1
##  3 CNAG_00004     48.9   27.0     90.0
##  4 CNAG_00005    111.    46.0    247. 
##  5 CNAG_00006    241.   106.     388. 
##  6 CNAG_00007     99.4   24.6    158. 
##  7 CNAG_00008     78.6   48.4    139. 
##  8 CNAG_00009     45.8   12.6    194. 
##  9 CNAG_00010    147.    59.4    320. 
## 10 CNAG_00011     21.7    5.74    70.0
## # ... with 6,785 more rows

genesummary2<-
  counts_long %>%
  group_by(Geneid) %>% 
  summarise(TPM.max = max(TPM)) %>%
  arrange(desc(TPM.max))
genesummary2

## # A tibble: 6,795 x 2
##    Geneid     TPM.max
##    <chr>        <dbl>
##  1 CNAG_04105  81227.
##  2 CNAG_04687  59073.
##  3 CNAG_06207  30464.
##  4 CNAG_06347  23751.
##  5 CNAG_06298  18780.
##  6 CNAG_01117  18092.
##  7 CNAG_06125  17935.
##  8 CNAG_02775  14791.
##  9 CNAG_00848  14308.
## 10 CNAG_06388  13095.
## # ... with 6,785 more rows
…
## Warning: Removed 44 rows containing missing values (position_stack).

Summarize TPMs by Group (i.e.groups of replicates for the same condition)

tpms_bygroup <- 
    counts_long  %>%
    group_by(Geneid,Group,Media,Time,Condition,Strain) %>%
    summarise(TPM = mean(TPM), FoldChange = mean(FoldChange)) 

## `summarise()` has grouped output by 'Geneid', 'Group', 'Media', 'Time', 'Condition'. You can override using the `.groups` argument.

tpms_bygroup

## # A tibble: 190,260 x 8
## # Groups:   Geneid, Group, Media, Time, Condition [190,260]
##    Geneid     Group    Media   Time Condition Strain   TPM FoldChange
##    <chr>      <fct>    <chr>  <dbl> <chr>     <chr>  <dbl>      <dbl>
##  1 CNAG_00002 A_Y_0    YPD        0 Y         A       79.1      0.473
##  2 CNAG_00002 A_R_30   RPMI      30 R         A      365.       2.18 
##  3 CNAG_00002 A_R_120  RPMI     120 R         A       95.0      0.567
##  4 CNAG_00002 A_R_240  RPMI     240 R         A       57.9      0.346
##  5 CNAG_00002 A_RS_30  RPMI+S    30 RS        A      329.       1.96 
##  6 CNAG_00002 A_RS_120 RPMI+S   120 RS        A       90.4      0.540
##  7 CNAG_00002 A_RS_240 RPMI+S   240 RS        A       49.9      0.298
##  8 CNAG_00002 a_Y_0    YPD        0 Y         a       99.8      0.596
##  9 CNAG_00002 a_R_30   RPMI      30 R         a      382.       2.28 
## 10 CNAG_00002 a_R_120  RPMI     120 R         a      103.       0.613
## # ... with 190,250 more rows
…
