PCA Plots
…
Write long-format counts to an output file

counts_long  %>%
    select(Geneid,SampleID,Strain,Condition,Time,BioRep,Count,TPM,FoldChange) %>%
    mutate(TPM = round(TPM, digits = 3)) %>%
    dplyr::mutate(GAT201 = forcats::fct_collapse(Strain, Yes = c("a","A"), No = c("B","M")))

## # A tibble: 380,520 x 10
##    Geneid   SampleID Strain Condition  Time BioRep Count   TPM FoldChange GAT201
##    <chr>    <chr>    <chr>  <chr>     <dbl>  <dbl> <dbl> <dbl>      <dbl> <fct> 
##  1 CNAG_00~ 15       a      Y             0      1   184 102.       0.611 Yes   
##  2 CNAG_00~ 38       B      RS          120      1   452 106.       0.635 No    
##  3 CNAG_00~ 26       a      RS           30      2  1652 395.       2.36  Yes   
##  4 CNAG_00~ 55       M      RS          120      2   403 102.       0.611 No    
##  5 CNAG_00~ 25       a      RS          240      1   172  47.8      0.285 Yes   
##  6 CNAG_00~ 43       M      Y             0      1   738 152.       0.910 No    
##  7 CNAG_00~ 44       M      R            30      1  2011 413.       2.47  No    
##  8 CNAG_00~ 18       a      R           240      1   207  62.2      0.372 Yes   
##  9 CNAG_00~ 41       B      RS          120      2  1099  95.4      0.570 No    
## 10 CNAG_00~ 50       M      R           240      2   761  88.7      0.530 No    
## # ... with 380,510 more rows

Reshape the TPMs into a wide table that we can use for heatmap

tpms_wide <- counts_long %>%
              pivot_wider(id_cols = Geneid, names_from = SampleID, values_from = TPM)

Calculate a summary table of mean, min, max TPM by gene

genesummary <- 
    counts_long %>%
    group_by(Geneid) %>%
    summarise(TPM.mean = mean(TPM), TPM.min = min(TPM), TPM.max = max(TPM))
genesummary

## # A tibble: 6,795 x 4
##    Geneid     TPM.mean TPM.min TPM.max
##    <chr>         <dbl>   <dbl>   <dbl>
##  1 CNAG_00002    167.    47.8    427. 
##  2 CNAG_00003     29.9   12.6     85.1
##  3 CNAG_00004     48.9   27.0     90.0
##  4 CNAG_00005    111.    46.0    247. 
##  5 CNAG_00006    241.   106.     388. 
##  6 CNAG_00007     99.4   24.6    158. 
##  7 CNAG_00008     78.6   48.4    139. 
##  8 CNAG_00009     45.8   12.6    194. 
##  9 CNAG_00010    147.    59.4    320. 
## 10 CNAG_00011     21.7    5.74    70.0
## # ... with 6,785 more rows
…
Plot first and second principal components

plot_pca_PC12_Condition <- 
pca_log10foldchange_mintpm20 %>%
    broom::tidy(matrix = "rotation") 
plot_pca_PC12_Condition

## # A tibble: 3,136 x 3
##    column    PC    value
##    <chr>  <dbl>    <dbl>
##  1 15         1  0.00982
##  2 15         2  0.211  
##  3 15         3  0.279  
##  4 15         4 -0.0323 
##  5 15         5  0.00547
##  6 15         6 -0.0344 
##  7 15         7  0.0479 
##  8 15         8 -0.0491 
##  9 15         9  0.0250 
## 10 15        10  0.0773 
## # ... with 3,126 more rows
…
ggsave("~/GitHub/CryptoGat201RNASeq_draft_Liz/results_counts/plot_pca_PC12_Conditionb.jpeg",
       plot_pca_PC12_Conditionb,width = 4,height=4)

Plot second and third principal components

plot_pca_PC23_Condition <- 
pca_log10foldchange_mintpm20 %>%
    broom::tidy(matrix = "rotation") 
plot_pca_PC23_Condition

## # A tibble: 3,136 x 3
##    column    PC    value
##    <chr>  <dbl>    <dbl>
##  1 15         1  0.00982
##  2 15         2  0.211  
##  3 15         3  0.279  
##  4 15         4 -0.0323 
##  5 15         5  0.00547
##  6 15         6 -0.0344 
##  7 15         7  0.0479 
##  8 15         8 -0.0491 
##  9 15         9  0.0250 
## 10 15        10  0.0773 
## # ... with 3,126 more rows
…
Plot third and fourth principal components

plot_pca_PC34_Condition <- 
pca_log10foldchange_mintpm20 %>%
    broom::tidy(matrix = "rotation") 
plot_pca_PC34_Condition

## # A tibble: 3,136 x 3
##    column    PC    value
##    <chr>  <dbl>    <dbl>
##  1 15         1  0.00982
##  2 15         2  0.211  
##  3 15         3  0.279  
##  4 15         4 -0.0323 
##  5 15         5  0.00547
##  6 15         6 -0.0344 
##  7 15         7  0.0479 
##  8 15         8 -0.0491 
##  9 15         9  0.0250 
## 10 15        10  0.0773 
## # ... with 3,126 more rows
…
Plot fourth and fifthprincipal components

plot_pca_PC45_Condition <- 
pca_log10foldchange_mintpm20 %>%
    broom::tidy(matrix = "rotation") 
plot_pca_PC45_Condition

## # A tibble: 3,136 x 3
##    column    PC    value
##    <chr>  <dbl>    <dbl>
##  1 15         1  0.00982
##  2 15         2  0.211  
##  3 15         3  0.279  
##  4 15         4 -0.0323 
##  5 15         5  0.00547
##  6 15         6 -0.0344 
##  7 15         7  0.0479 
##  8 15         8 -0.0491 
##  9 15         9  0.0250 
## 10 15        10  0.0773 
## # ... with 3,126 more rows
…
