Volcano plots and DEG
…
tresults_0h %>%  
dplyr::mutate(minus_log10_pvalue = -log10(p.value)) %>%
readr::write_tsv("~/GitHub/CryptoGat201RNASeq_draft_b/results_deseq/Gat201_WT_0h.txt")

de_Gat201up_0h <- dplyr::filter(tresults_0h, estimate > 1, p.adjusted < 0.05) %>%
              dplyr::arrange(desc(estimate))
de_Gat201up_0h

## # A tibble: 31 x 7
##    gene       baseMean estimate stderror statistic  p.value   p.adjusted
##    <chr>         <dbl>    <dbl>    <dbl>     <dbl>    <dbl>        <dbl>
##  1 CNAG_01560     32.0     3.80    1.16       3.29 1.01e- 3 0.0248      
##  2 CNAG_02553     26.8     2.19    0.377      5.81 6.31e- 9 0.00000167  
##  3 CNAG_01571    342.      2.05    0.590      3.47 5.23e- 4 0.0157      
##  4 CNAG_01551    257.      1.82    0.313      5.82 5.86e- 9 0.00000166  
##  5 CNAG_02225    547.      1.71    0.267      6.41 1.46e-10 0.0000000732
##  6 CNAG_01275    111.      1.68    0.288      5.82 5.86e- 9 0.00000166  
##  7 CNAG_06484    152.      1.58    0.326      4.84 1.32e- 6 0.000168    
##  8 CNAG_03754    127.      1.50    0.277      5.43 5.66e- 8 0.0000119   
##  9 CNAG_07913     25.5     1.42    0.355      3.99 6.59e- 5 0.00340     
## 10 CNAG_06568    628.      1.41    0.217      6.51 7.71e-11 0.0000000456
## # ... with 21 more rows

readr::write_tsv(de_Gat201up_0h, "~/GitHub/CryptoGat201RNASeq_draft_b/results_deseq/Gat201up_padj05_0h.txt")

readr::write_lines(de_Gat201up_0h$gene, "~/GitHub/CryptoGat201RNASeq_draft_b/results_deseq/Gat201up_padj05_0h_genesonly.csv")

de_Gat201down_0h <- dplyr::filter(tresults_0h, estimate < -1, p.adjusted < 0.05) %>%
                dplyr::arrange(estimate)
de_Gat201down_0h

## # A tibble: 74 x 7
##    gene       baseMean estimate stderror statistic  p.value p.adjusted
##    <chr>         <dbl>    <dbl>    <dbl>     <dbl>    <dbl>      <dbl>
##  1 CNAG_00979    242.     -2.52    0.294     -8.58 9.50e-18   6.18e-14
##  2 CNAG_06802     20.7    -2.21    0.438     -5.04 4.56e- 7   6.74e- 5
##  3 CNAG_00472     12.6    -1.92    0.510     -3.76 1.73e- 4   7.15e- 3
##  4 CNAG_05962     42.7    -1.90    0.353     -5.39 7.15e- 8   1.45e- 5
##  5 CNAG_06662     13.2    -1.80    0.493     -3.66 2.55e- 4   9.32e- 3
##  6 CNAG_05144     48.3    -1.77    0.349     -5.07 4.04e- 7   6.26e- 5
##  7 CNAG_04681    202.     -1.70    0.234     -7.27 3.58e-13   5.82e-10
##  8 CNAG_07791   1039.     -1.64    0.490     -3.34 8.25e- 4   2.17e- 2
##  9 CNAG_02194     36.0    -1.61    0.339     -4.74 2.15e- 6   2.57e- 4
## 10 CNAG_01333     14.9    -1.60    0.408     -3.92 9.02e- 5   4.22e- 3
## # ... with 64 more rows
…
tresults_30m %>%  
dplyr::mutate(minus_log10_pvalue = -log10(p.value)) %>%
readr::write_tsv("~/GitHub/CryptoGat201RNASeq_draft_b/results_deseq/Gat201_WT_30m.txt")

de_Gat201up_30m <- dplyr::filter(tresults_30m, estimate > 1, p.adjusted < 0.05) %>%
              dplyr::arrange(desc(estimate))
de_Gat201up_30m

## # A tibble: 49 x 7
##    gene       baseMean estimate stderror statistic  p.value p.adjusted
##    <chr>         <dbl>    <dbl>    <dbl>     <dbl>    <dbl>      <dbl>
##  1 CNAG_01560     63.6     3.02    0.588      5.14 2.76e- 7   1.58e- 5
##  2 CNAG_03609     80.6     2.77    0.881      3.15 1.65e- 3   1.35e- 2
##  3 CNAG_04103    102.      2.69    0.307      8.76 1.88e-18   1.16e-15
##  4 CNAG_02729     45.7     1.94    0.709      2.73 6.35e- 3   3.71e- 2
##  5 CNAG_01524    178.      1.80    0.360      5.00 5.61e- 7   2.77e- 5
##  6 CNAG_06659     64.5     1.77    0.213      8.30 1.07e-16   4.85e-14
##  7 CNAG_01571    247.      1.76    0.482      3.65 2.63e- 4   3.39e- 3
##  8 CNAG_00321     75.3     1.71    0.633      2.70 7.00e- 3   4.00e- 2
##  9 CNAG_00588    268.      1.68    0.246      6.83 8.43e-12   1.30e- 9
## 10 CNAG_04104    141.      1.65    0.254      6.52 7.00e-11   8.95e- 9
## # ... with 39 more rows

readr::write_tsv(de_Gat201up_30m, "~/GitHub/CryptoGat201RNASeq_draft_b/results_deseq/Gat201up_padj05_30m.txt")

readr::write_lines(de_Gat201up_30m$gene, "~/GitHub/CryptoGat201RNASeq_draft_b/results_deseq/Gat201up_padj05_30m_genesonly.csv")

de_Gat201down_30m <- dplyr::filter(tresults_30m, estimate < -1, p.adjusted < 0.05) %>%
                dplyr::arrange(estimate)
de_Gat201down_30m

## # A tibble: 68 x 7
##    gene       baseMean estimate stderror statistic  p.value p.adjusted
##    <chr>         <dbl>    <dbl>    <dbl>     <dbl>    <dbl>      <dbl>
##  1 CNAG_01551   928.      -4.09    0.252    -16.2  5.13e-59   3.48e-55
##  2 CNAG_00302    25.9     -2.80    0.262    -10.7  1.19e-26   2.70e-23
##  3 CNAG_06802   215.      -2.69    0.405     -6.64 3.04e-11   4.12e- 9
##  4 CNAG_03658     5.18    -2.18    0.698     -3.12 1.82e- 3   1.45e- 2
##  5 CNAG_03172    50.6     -2.14    0.476     -4.50 6.83e- 6   1.98e- 4
##  6 CNAG_01252     6.00    -2.00    0.455     -4.38 1.16e- 5   2.95e- 4
##  7 CNAG_03461   144.      -1.80    0.175    -10.3  1.17e-24   1.99e-21
##  8 CNAG_05513     5.48    -1.77    0.584     -3.04 2.37e- 3   1.77e- 2
##  9 CNAG_01909    11.7     -1.77    0.532     -3.33 8.82e- 4   8.31e- 3
## 10 CNAG_07896    18.2     -1.74    0.253     -6.87 6.64e-12   1.10e- 9
## # ... with 58 more rows
…
tresults_2h %>%  
dplyr::mutate(minus_log10_pvalue = -log10(p.value)) %>%
readr::write_tsv("~/GitHub/CryptoGat201RNASeq_draft_b/results_deseq/Gat201_WT_2h.txt")

de_Gat201up_2h <- dplyr::filter(tresults_2h, estimate > 1, p.adjusted < 0.05) %>%
              dplyr::arrange(desc(estimate))
de_Gat201up_2h

## # A tibble: 69 x 7
##    gene       baseMean estimate stderror statistic  p.value p.adjusted
##    <chr>         <dbl>    <dbl>    <dbl>     <dbl>    <dbl>      <dbl>
##  1 CNAG_07912  1081.       2.60    0.171     15.2  2.09e-52   1.42e-49
##  2 CNAG_07984    96.9      2.50    0.245     10.2  2.29e-24   3.61e-22
##  3 CNAG_01936   353.       2.34    0.218     10.7  7.23e-27   1.40e-24
##  4 CNAG_00588  3533.       2.27    0.209     10.9  1.42e-27   3.10e-25
##  5 CNAG_01965    40.0      2.07    0.333      6.22 5.08e-10   2.10e- 8
##  6 CNAG_02489    67.8      1.93    0.280      6.88 5.88e-12   3.19e-10
##  7 CNAG_03077     2.68     1.92    0.705      2.73 6.40e- 3   3.87e- 2
##  8 CNAG_01560    34.5      1.90    0.571      3.33 8.68e- 4   8.21e- 3
##  9 CNAG_06347  5905.       1.88    0.431      4.37 1.24e- 5   2.18e- 4
## 10 CNAG_03087    13.7      1.81    0.328      5.51 3.55e- 8   1.05e- 6
## # ... with 59 more rows

readr::write_tsv(de_Gat201up_2h, "~/GitHub/CryptoGat201RNASeq_draft_b/results_deseq/Gat201up_padj05_2h.txt")

readr::write_lines(de_Gat201up_2h$gene, "~/GitHub/CryptoGat201RNASeq_draft_b/results_deseq/Gat201up_padj05_2h_genesonly.csv")

de_Gat201down_2h <- dplyr::filter(tresults_2h, estimate < -1, p.adjusted < 0.05) %>%
                dplyr::arrange(estimate)
de_Gat201down_2h

## # A tibble: 105 x 7
##    gene       baseMean estimate stderror statistic   p.value p.adjusted
##    <chr>         <dbl>    <dbl>    <dbl>     <dbl>     <dbl>      <dbl>
##  1 CNAG_01980     34.8    -5.87    0.524    -11.2  3.95e- 29  9.92e- 27
##  2 CNAG_01551   2342.     -3.86    0.331    -11.6  2.48e- 31  6.46e- 29
##  3 CNAG_06389     98.2    -3.80    0.248    -15.3  3.76e- 53  2.83e- 50
##  4 CNAG_06242    898.     -3.57    0.180    -19.8  2.82e- 87  4.78e- 84
##  5 CNAG_04874    599.     -3.14    0.132    -23.8  5.33e-125  3.61e-121
##  6 CNAG_05916    329.     -2.94    0.133    -22.1  4.58e-108  1.55e-104
##  7 CNAG_00456   1066.     -2.93    0.180    -16.2  3.00e- 59  2.90e- 56
##  8 CNAG_06785    547.     -2.86    0.180    -15.9  4.88e- 57  4.14e- 54
##  9 CNAG_06917   1512.     -2.78    0.202    -13.8  4.33e- 43  2.09e- 40
## 10 CNAG_06802     22.0    -2.62    0.440     -5.94 2.86e-  9  1.06e-  7
## # ... with 95 more rows
…
tresults_4h %>%  
dplyr::mutate(minus_log10_pvalue = -log10(p.value)) %>%
readr::write_tsv("~/GitHub/CryptoGat201RNASeq_draft_b/results_deseq/Gat201_WT_4h.txt")

de_Gat201up_4h <- dplyr::filter(tresults_4h, estimate > 1, p.adjusted < 0.05) %>%
              dplyr::arrange(desc(estimate))
de_Gat201up_4h

## # A tibble: 125 x 7
##    gene       baseMean estimate stderror statistic  p.value p.adjusted
##    <chr>         <dbl>    <dbl>    <dbl>     <dbl>    <dbl>      <dbl>
##  1 CNAG_07913     2.65     3.79    0.863      4.39 1.12e- 5   8.02e- 5
##  2 CNAG_02984    33.8      3.41    0.290     11.8  5.95e-32   7.32e-30
##  3 CNAG_07912   324.       3.36    0.215     15.6  5.38e-55   1.58e-52
##  4 CNAG_01500    13.9      3.29    0.495      6.65 2.96e-11   6.65e-10
##  5 CNAG_05662  3785.       2.59    0.239     10.9  1.55e-27   1.40e-25
##  6 CNAG_01562  2261.       2.54    0.502      5.06 4.26e- 7   4.52e- 6
##  7 CNAG_06347 49030.       2.42    0.191     12.7  4.38e-37   7.41e-35
##  8 CNAG_05833    33.0      2.41    0.263      9.15 5.67e-20   2.93e-18
##  9 CNAG_00765   274.       2.34    0.167     14.0  2.29e-44   5.52e-42
## 10 CNAG_01272  3424.       2.31    0.197     11.7  9.49e-32   1.11e-29
## # ... with 115 more rows

readr::write_tsv(de_Gat201up_4h, "~/GitHub/CryptoGat201RNASeq_draft_b/results_deseq/Gat201up_padj05_4h.txt")

readr::write_lines(de_Gat201up_4h$gene, "~/GitHub/CryptoGat201RNASeq_draft_b/results_deseq/Gat201up_padj05_4h_genesonly.csv")

de_Gat201down_4h <- dplyr::filter(tresults_4h, estimate < -1, p.adjusted < 0.05) %>%
                dplyr::arrange(estimate)
de_Gat201down_4h

## # A tibble: 240 x 7
##    gene       baseMean estimate stderror statistic   p.value p.adjusted
##    <chr>         <dbl>    <dbl>    <dbl>     <dbl>     <dbl>      <dbl>
##  1 CNAG_01980     147.    -7.86    0.465    -16.9  4.23e- 64  1.79e- 61
##  2 CNAG_06389     563.    -6.67    0.254    -26.3  4.72e-152  1.59e-148
##  3 CNAG_03894     419.    -6.11    0.360    -17.0  1.50e- 64  6.76e- 62
##  4 CNAG_04874    1391.    -4.17    0.203    -20.5  1.58e- 93  2.67e- 90
##  5 CNAG_06785    1150.    -4.01    0.123    -32.5  4.51e-231  3.05e-227
##  6 CNAG_00456    2472.    -3.94    0.193    -20.4  7.11e- 93  9.61e- 90
##  7 CNAG_06242     584.    -3.81    0.233    -16.3  5.35e- 60  1.81e- 57
##  8 CNAG_05312     196.    -3.80    0.213    -17.9  2.81e- 71  1.59e- 68
##  9 CNAG_00735     114.    -3.78    0.405     -9.33 1.11e- 20  6.15e- 19
## 10 CNAG_01551    2314.    -3.73    0.318    -11.7  7.96e- 32  9.44e- 30
## # ... with 230 more rows
…
