Cryptococcus Gat201 RNA-seq Counts analysis
…
counts_bygene_wide <- read_tsv("../quantseqfwd_EH_050221/counts.txt", comment = "#")

## 
##  Column specification 
## cols(
##   .default = col_double(),
##   Geneid = col_character(),
##   Strand = col_character()
## )
##  Use `spec()` for the full column specifications.

counts_bygene_wide

## # A tibble: 6,795 x 62
##    Geneid   Chr Start   End Strand Length `15_S25_R1_001_ `38_S13_R1_001_
##    <chr>  <dbl> <dbl> <dbl> <chr>   <dbl>            <dbl>            <dbl>
##  1 CNAG_     1 12730 13756 +        1027              184              452
##  2 CNAG_     1 14025 16421 -        2397              137              153
##  3 CNAG_     1 16427 19850 -        3424              134              210
##  4 CNAG_     1 20750 22911 -        2162              206              799
##  5 CNAG_     1 24710 26159 -        1450              490             1070
##  6 CNAG_     1 26275 28568 +        2294               67              423
##  7 CNAG_     1 28555 32905 -        4351              166              260
##  8 CNAG_     1 33086 34879 +        1794              259              121
##  9 CNAG_     1 35746 39624 -        3879              197              403
## 10 CNAG_     1 40231 42267 +        2037              105               80
## #  with 6,785 more rows, and 54 more variables: `26_S5_R1_001_aln.bam` <dbl>,
## #   `55_S38_R1_001_aln.bam` <dbl>, `25_S20_R1_001_aln.bam` <dbl>,
## #   `43_S7_R1_001_aln.bam` <dbl>, `44_S49_R1_001_aln.bam` <dbl>,
## #   `18_S19_R1_001_aln.bam` <dbl>, `41_S36_R1_001_aln.bam` <dbl>,
## #   `50_S50_R1_001_aln.bam` <dbl>, `9_S46_R1_001_aln.bam` <dbl>,
## #   `42_S41_R1_001_aln.bam` <dbl>, `56_S43_R1_001_aln.bam` <dbl>,
## #   `16_S42_R1_001_aln.bam` <dbl>, `28_S54_R1_001_aln.bam` <dbl>,
## #   `34_S35_R1_001_aln.bam` <dbl>, `35_S56_R1_001_aln.bam` <dbl>,
## #   `53_S24_R1_001_aln.bam` <dbl>, `21_S12_R1_001_aln.bam` <dbl>,
…
Make tidy (long-format) counts for plotting

counts_bygene_long <- counts_bygene_wide %>%
    select(-Chr,-Start,-End,-Strand,-Length) %>%
    pivot_longer(ends_with(".bam"), names_to = "Sampleid", values_to = "Count") %>%
    mutate(Sampleid = str_extract(Sampleid, "[0-9b]*(?=_)")) %>%
    group_by(Sampleid) %>%
    mutate(TPM = calculate_cpm(Count)) %>%
    ungroup() %>%
    left_join(sample_sheet, by = "Sampleid") %>%
    select(Sampleid, BioRep, Code, Strain, Gat201, Condition, Time, Geneid, Count, TPM)

counts_bygene_long

## # A tibble: 380,520 x 10
##    Sampleid BioRep Code     Strain Gat201 Condition  Time Geneid     Count   TPM
##    <chr>     <dbl> <chr>    <chr>  <fct>  <chr>     <dbl> <chr>      <dbl> <dbl>
##  1 15            1 a_Y_0    a      WT     Y             0 CNAG_00002   184 102. 
##  2 38            1 B_RS_120 B      delta  RS          120 CNAG_00002   452 106. 
##  3 26            2 a_RS_30  a      WT     RS           30 CNAG_00002  1652 395. 
##  4 55            2 M_RS_120 M      delta  RS          120 CNAG_00002   403 102. 
##  5 25            1 a_RS_240 a      WT     RS          240 CNAG_00002   172  47.8
##  6 43            1 M_Y_0    M      delta  Y             0 CNAG_00002   738 152. 
##  7 44            1 M_R_30   M      delta  R            30 CNAG_00002  2011 413. 
##  8 18            1 a_R_240  a      WT     R           240 CNAG_00002   207  62.2
##  9 41            2 B_RS_120 B      delta  RS          120 CNAG_00002  1099  95.4
## 10 50            2 M_R_240  M      delta  R           240 CNAG_00002   761  88.7
## #  with 380,510 more rows
…
